[{
    "code": 200,
    "message": "exito",
    "categorias": [{
        "id": 1,
        "nombre":"Seguimiento con dispositivo"
    },{
        "id": 2,
        "nombre":"cat 1"
    },{
        "id": 3,
        "nombre":"cat 2"
    },{
        "id": 4,
        "nombre":"cat 3"
    },{
        "id": 5,
        "nombre":"cat 4"
    },{
        "id": 6,
        "nombre":"cat 5"
    },{
        "id": 7,
        "nombre":"cat 6"
    }]
}]